%YAML 1.1
%TAG !u! tag:unity3d.com,2011:
--- !u!114 &11400000
MonoBehaviour:
  m_ObjectHideFlags: 0
  m_CorrespondingSourceObject: {fileID: 0}
  m_PrefabInstance: {fileID: 0}
  m_PrefabAsset: {fileID: 0}
  m_GameObject: {fileID: 0}
  m_Enabled: 1
  m_EditorHideFlags: 0
  m_Script: {fileID: 11500000, guid: 61ee3f2b27ea73a44a1363ddcf96dc5f, type: 3}
  m_Name: AWTUTB
  m_EditorClassIdentifier: 
  _name: Things Ain't What They Used To Be
  _music: {fileID: 0}
  _frames: []
